{
	"kind": "singleType",
	"collectionName": "products_sort_and_filters",
	"info": {
		"singularName": "products-sort-and-filter",
		"pluralName": "products-sort-and-filters",
		"displayName": "ProductsSortAndFilter",
		"description": ""
	},
	"options": {
		"draftAndPublish": true
	},
	"pluginOptions": {
		"i18n": {
			"localized": true
		}
	},
	"attributes": {
		"SortLabel": {
			"pluginOptions": {
				"i18n": {
					"localized": true
				}
			},
			"type": "string",
			"required": true
		},
		"SortLastUpdatedLabel": {
			"pluginOptions": {
				"i18n": {
					"localized": true
				}
			},
			"type": "string",
			"required": true
		},
		"SortHighPriceLabel": {
			"pluginOptions": {
				"i18n": {
					"localized": true
				}
			},
			"type": "string",
			"required": true
		},
		"SortLowPriceLabel": {
			"pluginOptions": {
				"i18n": {
					"localized": true
				}
			},
			"type": "string",
			"required": true
		},
		"OnlyInStockLabel": {
			"pluginOptions": {
				"i18n": {
					"localized": true
				}
			},
			"type": "string",
			"required": true
		}
	}
}
