{
	"kind": "singleType",
	"collectionName": "privacy_policy_pages",
	"info": {
		"singularName": "privacy-policy-page",
		"pluralName": "privacy-policy-pages",
		"displayName": "PrivacyPolicyPage",
		"description": ""
	},
	"options": {
		"draftAndPublish": true
	},
	"pluginOptions": {
		"i18n": {
			"localized": true
		}
	},
	"attributes": {
		"Title": {
			"pluginOptions": {
				"i18n": {
					"localized": true
				}
			},
			"type": "string",
			"required": true
		},
		"Content": {
			"pluginOptions": {
				"i18n": {
					"localized": true
				}
			},
			"type": "richtext",
			"required": true
		},
		"Seo": {
			"type": "component",
			"repeatable": false,
			"pluginOptions": {
				"i18n": {
					"localized": true
				}
			},
			"component": "shared.seo"
		}
	}
}
