{
	"kind": "singleType",
	"collectionName": "abouts",
	"info": {
		"singularName": "about",
		"pluralName": "abouts",
		"displayName": "About",
		"description": ""
	},
	"options": {
		"draftAndPublish": true
	},
	"pluginOptions": {
		"i18n": {
			"localized": true
		}
	},
	"attributes": {
		"Title": {
			"pluginOptions": {
				"i18n": {
					"localized": true
				}
			},
			"type": "text",
			"required": true
		},
		"StartingDate": {
			"pluginOptions": {
				"i18n": {
					"localized": true
				}
			},
			"type": "string",
			"required": true
		},
		"StartingDescription": {
			"pluginOptions": {
				"i18n": {
					"localized": true
				}
			},
			"type": "text",
			"required": true
		},
		"QualityTitle": {
			"pluginOptions": {
				"i18n": {
					"localized": true
				}
			},
			"type": "string",
			"required": true
		},
		"QualityDescription": {
			"pluginOptions": {
				"i18n": {
					"localized": true
				}
			},
			"type": "text",
			"required": true
		},
		"Video": {
			"type": "media",
			"multiple": false,
			"required": true,
			"allowedTypes": ["videos"],
			"pluginOptions": {
				"i18n": {
					"localized": false
				}
			}
		},
		"Seo": {
			"displayName": "Seo",
			"type": "component",
			"repeatable": false,
			"pluginOptions": {
				"i18n": {
					"localized": true
				}
			},
			"component": "shared.seo"
		}
	}
}
